<?xml version="1.0" encoding="UTF-8" standalone="no"?>
<!-- Created with Inkscape (http://www.inkscape.org/) -->

<svg
   xmlns:dc="http://purl.org/dc/elements/1.1/"
   xmlns:cc="http://creativecommons.org/ns#"
   xmlns:rdf="http://www.w3.org/1999/02/22-rdf-syntax-ns#"
   xmlns:svg="http://www.w3.org/2000/svg"
   xmlns="http://www.w3.org/2000/svg"
   xmlns:sodipodi="http://sodipodi.sourceforge.net/DTD/sodipodi-0.dtd"
   xmlns:inkscape="http://www.inkscape.org/namespaces/inkscape"
   width="231.10786"
   height="231.10788"
   viewBox="0 0 61.147288 61.147295"
   version="1.1"
   id="svg8"
   inkscape:version="0.92.1 r"
   sodipodi:docname="individ.svg">
  <defs
     id="defs2" />
  <sodipodi:namedview
     id="base"
     pagecolor="#ffffff"
     bordercolor="#666666"
     borderopacity="1.0"
     inkscape:pageopacity="0.0"
     inkscape:pageshadow="2"
     inkscape:zoom="0.12374369"
     inkscape:cx="-4080.4922"
     inkscape:cy="333.23196"
     inkscape:document-units="mm"
     inkscape:current-layer="layer1"
     showgrid="false"
     units="px"
     fit-margin-top="0"
     fit-margin-left="0"
     fit-margin-right="0"
     fit-margin-bottom="0"
     inkscape:window-width="1920"
     inkscape:window-height="1029"
     inkscape:window-x="0"
     inkscape:window-y="27"
     inkscape:window-maximized="1"
     showguides="false" />
  <metadata
     id="metadata5">
    <rdf:RDF>
      <cc:Work
         rdf:about="">
        <dc:format>image/svg+xml</dc:format>
        <dc:type
           rdf:resource="http://purl.org/dc/dcmitype/StillImage" />
        <dc:title />
      </cc:Work>
    </rdf:RDF>
  </metadata>
  <g
     inkscape:label="Layer 1"
     inkscape:groupmode="layer"
     id="layer1"
     transform="translate(-10.625761,-231.00995)">
    <path
       style="fill:#000000;stroke-width:0.32987013"
       d=""
       id="path4498"
       inkscape:connector-curvature="0" />
    <g
       id="g4834"
       style="fill:#5a0700;fill-opacity:1">
      <ellipse
         ry="12.277091"
         rx="12.672935"
         cy="250.735"
         cx="41.629025"
         id="path4606"
         style="fill:#5a0700;fill-opacity:1;stroke:none;stroke-width:4.4689827;stroke-miterlimit:4;stroke-dasharray:none;stroke-opacity:1" />
      <path
         sodipodi:nodetypes="sssccs"
         inkscape:connector-curvature="0"
         id="rect4608"
         d="m 28.847995,267.65081 c 3.510611,-2.607 8.740838,-2.65929 13.264962,-2.62575 4.209385,0.0311 9.052372,0.17598 12.297096,2.62575 4.840313,3.65445 7.665088,15.7201 7.665088,15.7201 H 21.182907 c 0,0 2.792467,-12.10165 7.665088,-15.7201 z"
         style="fill:#5a0700;fill-opacity:1;stroke:none;stroke-width:3.40747905;stroke-miterlimit:4;stroke-dasharray:none;stroke-opacity:1" />
    </g>
  </g>
</svg>
