<?xml version="1.0" encoding="UTF-8" standalone="no"?>
<!-- Created with Inkscape (http://www.inkscape.org/) -->

<svg
   xmlns:dc="http://purl.org/dc/elements/1.1/"
   xmlns:cc="http://creativecommons.org/ns#"
   xmlns:rdf="http://www.w3.org/1999/02/22-rdf-syntax-ns#"
   xmlns:svg="http://www.w3.org/2000/svg"
   xmlns="http://www.w3.org/2000/svg"
   xmlns:xlink="http://www.w3.org/1999/xlink"
   xmlns:sodipodi="http://sodipodi.sourceforge.net/DTD/sodipodi-0.dtd"
   xmlns:inkscape="http://www.inkscape.org/namespaces/inkscape"
   width="17.185633mm"
   height="0.71320373mm"
   viewBox="0 0 60.893974 2.5270997"
   id="svg2"
   version="1.1"
   inkscape:version="0.92.2 2405546, 2018-03-11"
   sodipodi:docname="page-shadow.svg">
  <defs
     id="defs4">
    <linearGradient
       inkscape:collect="always"
       id="linearGradient4170">
      <stop
         style="stop-color:#bcbcb4;stop-opacity:1;"
         offset="0"
         id="stop4172" />
      <stop
         style="stop-color:#bcbcb4;stop-opacity:0;"
         offset="1"
         id="stop4174" />
    </linearGradient>
    <linearGradient
       inkscape:collect="always"
       id="linearGradient4252">
      <stop
         style="stop-color:#bcbcb4;stop-opacity:1"
         offset="0"
         id="stop4256" />
      <stop
         style="stop-color:#b6b6ae;stop-opacity:0"
         offset="1"
         id="stop4258" />
    </linearGradient>
    <linearGradient
       inkscape:collect="always"
       xlink:href="#linearGradient4252"
       id="linearGradient4220"
       x1="548.26392"
       y1="733.61218"
       x2="607.23547"
       y2="733.61218"
       gradientUnits="userSpaceOnUse"
       gradientTransform="matrix(0.43096733,0,0,0.28661713,366.02583,510.23933)" />
    <linearGradient
       inkscape:collect="always"
       xlink:href="#linearGradient4252"
       id="linearGradient4150"
       gradientUnits="userSpaceOnUse"
       gradientTransform="matrix(0.43096733,0,0,0.28661713,-837.88744,510.23929)"
       x1="548.26392"
       y1="733.61218"
       x2="607.23547"
       y2="733.61218" />
    <linearGradient
       inkscape:collect="always"
       xlink:href="#linearGradient4170"
       id="linearGradient4176"
       x1="600.85181"
       y1="710.9267"
       x2="604.24451"
       y2="710.9267"
       gradientUnits="userSpaceOnUse"
       gradientTransform="matrix(7.8971514,0,0,3.2801536,-5338.1657,-1627.9052)" />
    <linearGradient
       inkscape:collect="always"
       xlink:href="#linearGradient4170"
       id="linearGradient4222"
       gradientUnits="userSpaceOnUse"
       gradientTransform="matrix(7.8971514,0,0,3.2801536,-4151.8332,-1627.9051)"
       x1="600.85181"
       y1="710.9267"
       x2="604.24451"
       y2="710.9267" />
  </defs>
  <sodipodi:namedview
     id="base"
     pagecolor="#ffffff"
     bordercolor="#666666"
     borderopacity="1.0"
     inkscape:pageopacity="0.0"
     inkscape:pageshadow="2"
     inkscape:zoom="11.313709"
     inkscape:cx="27.565746"
     inkscape:cy="1.947206"
     inkscape:document-units="px"
     inkscape:current-layer="layer1"
     showgrid="false"
     inkscape:window-width="1920"
     inkscape:window-height="1034"
     inkscape:window-x="0"
     inkscape:window-y="0"
     inkscape:window-maximized="1"
     fit-margin-top="-0.1"
     fit-margin-left="-0.1"
     fit-margin-right="-0.1"
     fit-margin-bottom="-0.1"
     showguides="false" />
  <metadata
     id="metadata7">
    <rdf:RDF>
      <cc:Work
         rdf:about="">
        <dc:format>image/svg+xml</dc:format>
        <dc:type
           rdf:resource="http://purl.org/dc/dcmitype/StillImage" />
        <dc:title />
      </cc:Work>
    </rdf:RDF>
  </metadata>
  <g
     inkscape:label="Layer 1"
     inkscape:groupmode="layer"
     id="layer1"
     transform="translate(-562.96403,-702.78005)">
    <image
       y="948.00507"
       x="993.78571"
       id="image3344"
       xlink:href="data:image/png;base64,iVBORw0KGgoAAAANSUhEUgAAAMkAAAADCAYAAAA5tSvXAAAABHNCSVQICAgIfAhkiAAAAAlwSFlz AAAN1wAADdcBQiibeAAAABl0RVh0U29mdHdhcmUAd3d3Lmlua3NjYXBlLm9yZ5vuPBoAAAC1SURB VEiJ7ZSxDsIwDESfE6czYub/v4wZsbDUrsNQCoiW0gEJCeVJ0Z2li5PBidR6qTQWqRWg3vxDX31E vfl4qoOISkQQMeA+rmFwzBx3x8xwd/reMOsxM06n83G/3x1KKZTS0XUFVaWUSZWcFdWMaialTEqJ lASRSUcvIk+1AMz8iHC3jRnp1xf4L95N2jSUrOps18f8+nmN79AeyQpbf9ctOVkMbR3meW6532tm Y/f2pla5AoHyUxwE+OvTAAAAAElFTkSuQmCC "
       preserveAspectRatio="none"
       height="3"
       width="201" />
    <image
       y="713.47125"
       x="503.06613"
       id="image3409"
       xlink:href="data:image/png;base64,iVBORw0KGgoAAAANSUhEUgAAAMkAAAADCAYAAAA5tSvXAAAABHNCSVQICAgIfAhkiAAAAAlwSFlz AAAN1wAADdcBQiibeAAAABl0RVh0U29mdHdhcmUAd3d3Lmlua3NjYXBlLm9yZ5vuPBoAAAC1SURB VEiJ7ZSxDsIwDESfE6czYub/v4wZsbDUrsNQCoiW0gEJCeVJ0Z2li5PBidR6qTQWqRWg3vxDX31E vfl4qoOISkQQMeA+rmFwzBx3x8xwd/reMOsxM06n83G/3x1KKZTS0XUFVaWUSZWcFdWMaialTEqJ lASRSUcvIk+1AMz8iHC3jRnp1xf4L95N2jSUrOps18f8+nmN79AeyQpbf9ctOVkMbR3meW6532tm Y/f2pla5AoHyUxwE+OvTAAAAAElFTkSuQmCC "
       preserveAspectRatio="none"
       height="3"
       width="201" />
    <rect
       style="fill:url(#linearGradient4220);fill-opacity:1;fill-rule:evenodd;stroke:none;stroke-width:1px;stroke-linecap:butt;stroke-linejoin:miter;stroke-opacity:1"
       id="rect3412"
       width="49.984512"
       height="4.3248477"
       x="601.94196"
       y="718.3811" />
    <rect
       y="718.3811"
       x="-601.97125"
       height="4.3248477"
       width="49.984512"
       id="rect4148"
       style="fill:url(#linearGradient4150);fill-opacity:1;fill-rule:evenodd;stroke:none;stroke-width:1px;stroke-linecap:butt;stroke-linejoin:miter;stroke-opacity:1"
       transform="scale(-1,1)" />
    <rect
       style="fill:#ff0000;fill-opacity:1;stroke:none"
       id="rect4178"
       width="3.3984375"
       height="3.890625"
       x="540.83978"
       y="698.68658" />
    <rect
       y="702.42572"
       x="-593.14795"
       height="3.2357612"
       width="30.538256"
       id="rect4168"
       style="fill:url(#linearGradient4176);fill-opacity:1;stroke:none"
       transform="scale(-1,1)" />
    <rect
       style="fill:url(#linearGradient4222);fill-opacity:1;stroke:none"
       id="rect4220"
       width="30.538256"
       height="3.2357612"
       x="593.17975"
       y="702.42572" />
    <rect
       style="fill:#a3a399;fill-opacity:1;stroke:none"
       id="rect4166"
       width="0.54363501"
       height="3.2357612"
       x="592.89374"
       y="702.42426" />
  </g>
</svg>
