<?xml version="1.0" encoding="UTF-8" standalone="no"?>
<!-- Created with Inkscape (http://www.inkscape.org/) -->

<svg
   xmlns:dc="http://purl.org/dc/elements/1.1/"
   xmlns:cc="http://creativecommons.org/ns#"
   xmlns:rdf="http://www.w3.org/1999/02/22-rdf-syntax-ns#"
   xmlns:svg="http://www.w3.org/2000/svg"
   xmlns="http://www.w3.org/2000/svg"
   xmlns:sodipodi="http://sodipodi.sourceforge.net/DTD/sodipodi-0.dtd"
   xmlns:inkscape="http://www.inkscape.org/namespaces/inkscape"
   width="47.545628"
   height="9.8789301"
   viewBox="0 0 12.579781 2.6138002"
   version="1.1"
   id="svg8"
   inkscape:version="0.92.2 5c3e80d, 2017-08-06"
   sodipodi:docname="breaker.svg">
  <defs
     id="defs2" />
  <sodipodi:namedview
     id="base"
     pagecolor="#ffffff"
     bordercolor="#666666"
     borderopacity="1.0"
     inkscape:pageopacity="0.0"
     inkscape:pageshadow="2"
     inkscape:zoom="11.2"
     inkscape:cx="22.855913"
     inkscape:cy="-5.5143856"
     inkscape:document-units="mm"
     inkscape:current-layer="text817"
     showgrid="false"
     inkscape:window-width="1920"
     inkscape:window-height="1029"
     inkscape:window-x="0"
     inkscape:window-y="27"
     inkscape:window-maximized="1"
     fit-margin-top="1"
     fit-margin-left="1"
     fit-margin-right="1"
     fit-margin-bottom="1"
     units="px" />
  <metadata
     id="metadata5">
    <rdf:RDF>
      <cc:Work
         rdf:about="">
        <dc:format>image/svg+xml</dc:format>
        <dc:type
           rdf:resource="http://purl.org/dc/dcmitype/StillImage" />
        <dc:title></dc:title>
      </cc:Work>
    </rdf:RDF>
  </metadata>
  <g
     inkscape:label="Layer 1"
     inkscape:groupmode="layer"
     id="layer1"
     transform="translate(-22.554336,-44.953327)">
    <g
       aria-label="L"
       style="font-style:normal;font-weight:normal;font-size:10.58333302px;line-height:6.61458302px;font-family:sans-serif;letter-spacing:0px;word-spacing:0px;fill:#000000;fill-opacity:1;stroke:none;stroke-width:0.26458332px;stroke-linecap:butt;stroke-linejoin:miter;stroke-opacity:1"
       id="text817">
      <path
         style="font-style:normal;font-variant:normal;font-weight:normal;font-stretch:normal;font-family:'Eileen Caps Black';-inkscape-font-specification:'Eileen Caps Black, ';fill:#5a0700;fill-opacity:1;stroke-width:0.99999994px"
         d="m 90.177734,170.90234 c -0.399998,0 -0.786814,0.0926 -1.160156,0.2793 -0.399999,0.16 -0.959687,0.52008 -1.679687,1.08008 -0.72,0.56 -1.080079,1.42627 -1.080079,2.59961 -0.02668,0.16 -0.01231,0.40069 0.04102,0.7207 0.05334,0.32 0.185083,0.66572 0.398438,1.03906 0.186667,0.37334 0.48086,0.74776 0.880859,1.1211 0.37333,0.37333 0.879533,0.6923 1.519531,0.95898 0.213336,0.0267 0.439688,0.0533 0.679688,0.0801 h 0.640625 c 0.906667,0 1.799689,-0.13374 2.679687,-0.40039 0.853331,-0.26667 1.653723,-0.6124 2.400391,-1.03906 0.72,-0.42667 1.795965,-1.00302 2.714844,-1.46485 1.842145,-0.92586 3.565905,-2.0622 5.605465,-2.61523 0.90667,-0.26666 1.60008,-0.40039 2.08008,-0.40039 0.26666,0 0.43952,0.0142 0.51953,0.041 0.0755,0.24524 0.01,0.442 -0.18164,0.59375 -0.16266,0.0298 -0.36212,0.0515 -0.5,0.0859 -0.32001,0.0533 -0.58548,0.13358 -0.79883,0.24024 -0.39999,0.18666 -0.74769,0.35954 -1.04102,0.51953 -0.29332,0.15998 -0.58557,0.37398 -0.8789,0.64062 0.10666,0.0269 0.19928,0.0533 0.2793,0.0801 h 0.24023 c 0.29333,0 0.68016,-0.16046 1.16016,-0.48047 0.20293,-0.15518 0.39703,-0.26299 0.58398,-0.33789 l 0.0566,0.0566 c 0.17774,-0.0606 0.36359,-0.1068 0.54688,-0.1582 0.0173,0.002 0.0356,-0.002 0.0527,0 0.1608,-0.0536 0.32806,-0.0967 0.49414,-0.14063 0.81105,-0.18205 1.67335,-0.28036 2.58594,-0.29297 0.91259,0.0126 1.77488,0.11092 2.58594,0.29297 0.16608,0.0439 0.33333,0.087 0.49414,0.14063 0.0171,-0.002 0.0354,0.002 0.0527,0 0.18328,0.0514 0.36913,0.0976 0.54688,0.1582 l 0.0566,-0.0566 c 0.18695,0.0749 0.38105,0.18271 0.58398,0.33789 0.48,0.32001 0.86683,0.48047 1.16016,0.48047 h 0.24023 c 0.08,-0.0267 0.17264,-0.0532 0.2793,-0.0801 -0.29333,-0.26666 -0.58558,-0.48064 -0.87891,-0.64062 -0.29333,-0.16 -0.64102,-0.33286 -1.04101,-0.51953 -0.21334,-0.10666 -0.47882,-0.18691 -0.79883,-0.24024 -0.13788,-0.0345 -0.33734,-0.0562 -0.5,-0.0859 -0.19157,-0.15175 -0.25709,-0.34852 -0.18164,-0.59375 0.08,-0.0266 0.25288,-0.041 0.51953,-0.041 0.48,0 1.17341,0.13374 2.08008,0.40039 2.03955,0.55303 3.76332,1.68937 5.60547,2.61523 0.91888,0.46183 1.99484,1.03818 2.71484,1.46485 0.74667,0.42666 1.54706,0.77238 2.40039,1.03906 0.88,0.26663 1.77302,0.40039 2.67969,0.40039 h 0.64062 c 0.24,-0.0268 0.46634,-0.0532 0.67969,-0.0801 0.63999,-0.26668 1.14619,-0.58564 1.51953,-0.95898 0.4,-0.37334 0.69419,-0.74775 0.88086,-1.1211 0.21335,-0.37333 0.34511,-0.71905 0.39844,-1.03906 0.0535,-0.32001 0.0678,-0.56071 0.041,-0.7207 0,-1.17334 -0.36007,-2.03961 -1.08007,-2.59961 -0.72,-0.56 -1.27969,-0.92009 -1.67969,-1.08008 -0.37334,-0.18671 -0.76016,-0.2793 -1.16016,-0.2793 -0.37334,0 -0.80125,0.1318 -1.28125,0.39844 -0.48,0.24 -0.99859,0.50745 -1.55859,0.80078 -0.53333,0.29333 -1.09302,0.54641 -1.67969,0.75977 -0.58666,0.21339 -1.1607,0.29352 -1.7207,0.24023 -0.66667,0 -1.2531,-0.14612 -1.75977,-0.43945 -0.29332,-0.26665 -0.49295,-0.48064 -0.59961,-0.64063 -0.10666,-0.18667 -0.12103,-0.42737 -0.041,-0.7207 l 0.75976,-0.11914 v -0.16016 c -0.15997,-0.0532 -0.29373,-0.0801 -0.40039,-0.0801 -0.29333,0 -0.5197,0.11937 -0.67969,0.35937 -0.13334,0.21336 -0.19921,0.41489 -0.19921,0.60156 0,0.21336 0.0659,0.42536 0.19921,0.63868 0.80001,0.71999 1.82675,1.08007 3.08008,1.08007 0.80001,0 1.54691,-0.13374 2.24024,-0.40039 0.10669,-0.0533 0.22603,-0.1192 0.35937,-0.19922 0.13334,-0.08 0.22792,-0.17263 0.28125,-0.27929 0.18666,0.21335 0.32038,0.65365 0.40039,1.32031 0.08,0.64 0.2796,1.06594 0.59961,1.2793 0.34666,0.18671 0.73349,0.27929 1.16016,0.27929 0.29333,0 0.53208,-0.0535 0.71875,-0.16015 0.21335,-0.10666 0.32031,-0.26516 0.32031,-0.47852 0,-0.15999 -0.0122,-0.28131 -0.0391,-0.36133 -0.34666,0.29333 -0.69436,0.44141 -1.04102,0.44141 h -0.24023 c -0.08,-0.0268 -0.17264,-0.0532 -0.2793,-0.0801 -0.56,-0.34666 -0.83984,-0.86721 -0.83984,-1.56054 0,-0.16 0.0269,-0.33287 0.0801,-0.51954 0.08,-0.21335 0.19938,-0.40056 0.35937,-0.56054 0.15999,-0.18669 0.35961,-0.33276 0.59961,-0.43946 0.24,-0.10654 0.51983,-0.13337 0.83984,-0.0801 h 0.52149 c 0.21335,0 0.42535,0.0122 0.63867,0.0391 0.98667,0.37334 1.64092,0.84039 1.96094,1.40039 0.32005,0.53333 0.43939,1.01278 0.35937,1.43945 0,1.06667 -0.30659,1.97404 -0.91992,2.72071 -0.48,0.37334 -0.92031,0.62642 -1.32031,0.75976 -0.37334,0.10666 -0.82604,0.16016 -1.35938,0.16016 -0.88,0 -1.6393,-0.13375 -2.27929,-0.40039 -0.69334,-0.26665 -1.85381,-0.78722 -3.48047,-1.56055 l -2.83985,-1.59766 c -0.59524,-0.36818 -1.34588,-0.90673 -1.91992,-1.13086 -0.7077,-0.40869 -1.42729,-0.73131 -2.16015,-0.95117 -1.06667,-0.32003 -2.17366,-0.48047 -3.32032,-0.48047 -0.77646,0 -1.56448,0.10312 -2.35937,0.26953 -0.79489,-0.16641 -1.58291,-0.26953 -2.35938,-0.26953 -1.14666,0 -2.25364,0.16046 -3.32031,0.48047 -0.73287,0.21987 -1.45246,0.54248 -2.16016,0.95117 -0.57404,0.22413 -1.32467,0.76267 -1.919914,1.13086 l -2.839843,1.59766 c -1.626667,0.77333 -2.787134,1.2939 -3.480469,1.56055 -0.639999,0.26666 -1.399298,0.40039 -2.279297,0.40039 -0.533333,0 -0.986033,-0.0535 -1.359375,-0.16016 -0.399999,-0.13333 -0.840312,-0.38643 -1.320312,-0.75976 -0.613331,-0.74667 -0.919922,-1.65404 -0.919922,-2.72071 -0.08,-0.42667 0.03936,-0.90612 0.359375,-1.43945 0.320001,-0.56 0.974269,-1.02705 1.960937,-1.40039 0.213324,-0.0268 0.425318,-0.0391 0.638672,-0.0391 h 0.521484 c 0.320002,-0.0533 0.599844,-0.0266 0.839844,0.0801 0.24,0.10669 0.439622,0.25279 0.59961,0.43946 0.159987,0.15999 0.279362,0.34719 0.359375,0.56054 0.05318,0.18669 0.08008,0.35955 0.08008,0.51954 0,0.69332 -0.279843,1.21388 -0.839844,1.56054 -0.106658,0.0267 -0.199284,0.0533 -0.279297,0.0801 H 91.05844 c -0.34667,0 -0.694358,-0.14808 -1.041016,-0.44141 -0.02676,0.08 -0.03906,0.20134 -0.03906,0.36133 0,0.21336 0.106958,0.37186 0.320312,0.47852 0.186667,0.10666 0.425421,0.16015 0.71875,0.16015 0.426667,0 0.813498,-0.0926 1.160156,-0.27929 0.320013,-0.21334 0.519597,-0.6393 0.59961,-1.2793 0.08002,-0.66666 0.21372,-1.10696 0.40039,-1.32031 0.05333,0.10666 0.147909,0.19928 0.28125,0.27929 0.133342,0.08 0.252717,0.14589 0.359375,0.19922 0.693332,0.26666 1.440233,0.40039 2.240235,0.40039 1.253333,0 2.280077,-0.36007 3.080078,-1.08007 0.133342,-0.21333 0.199219,-0.42532 0.199219,-0.63868 0,-0.18666 -0.06588,-0.3882 -0.199219,-0.60156 -0.159999,-0.24 -0.386358,-0.35937 -0.679688,-0.35937 -0.106669,0 -0.240403,0.0268 -0.40039,0.0801 v 0.16016 l 0.759765,0.11914 c 0.08001,0.29334 0.06565,0.53403 -0.04102,0.7207 -0.106666,0.16 -0.30628,0.37398 -0.59961,0.64063 -0.506664,0.29332 -1.093098,0.43945 -1.759765,0.43945 -0.560002,0.0533 -1.134038,-0.0269 -1.720703,-0.24023 -0.586666,-0.21334 -1.146355,-0.46644 -1.679688,-0.75977 -0.560001,-0.29333 -1.078594,-0.56078 -1.558594,-0.80078 -0.48,-0.26666 -0.907908,-0.39844 -1.28125,-0.39844 z"
         transform="scale(0.26458333)"
         id="path819"
         inkscape:connector-curvature="0" />
    </g>
  </g>
</svg>
