<?xml version="1.0" encoding="UTF-8" standalone="no"?>
<!-- Created with Inkscape (http://www.inkscape.org/) -->

<svg
   xmlns:dc="http://purl.org/dc/elements/1.1/"
   xmlns:cc="http://creativecommons.org/ns#"
   xmlns:rdf="http://www.w3.org/1999/02/22-rdf-syntax-ns#"
   xmlns:svg="http://www.w3.org/2000/svg"
   xmlns="http://www.w3.org/2000/svg"
   xmlns:sodipodi="http://sodipodi.sourceforge.net/DTD/sodipodi-0.dtd"
   xmlns:inkscape="http://www.inkscape.org/namespaces/inkscape"
   width="3.6969919mm"
   height="5.2712607mm"
   viewBox="0 0 13.099577 18.677696"
   id="svg2"
   version="1.1"
   inkscape:version="0.91 r13725"
   sodipodi:docname="pencil.svg">
  <defs
     id="defs4">
    <filter
       inkscape:collect="always"
       style="color-interpolation-filters:sRGB"
       id="filter4358"
       x="-0.090091854"
       width="1.1801836"
       y="-0.059959244"
       height="1.1199185">
      <feGaussianBlur
         inkscape:collect="always"
         stdDeviation="0.41666014"
         id="feGaussianBlur4360" />
    </filter>
  </defs>
  <sodipodi:namedview
     id="base"
     pagecolor="#ffffff"
     bordercolor="#666666"
     borderopacity="1.0"
     inkscape:pageopacity="0.0"
     inkscape:pageshadow="2"
     inkscape:zoom="64.000003"
     inkscape:cx="11.709151"
     inkscape:cy="8.3952689"
     inkscape:document-units="px"
     inkscape:current-layer="layer1"
     showgrid="false"
     inkscape:window-width="3200"
     inkscape:window-height="1685"
     inkscape:window-x="0"
     inkscape:window-y="41"
     inkscape:window-maximized="1"
     fit-margin-top="0"
     fit-margin-left="0"
     fit-margin-right="0"
     fit-margin-bottom="0" />
  <metadata
     id="metadata7">
    <rdf:RDF>
      <cc:Work
         rdf:about="">
        <dc:format>image/svg+xml</dc:format>
        <dc:type
           rdf:resource="http://purl.org/dc/dcmitype/StillImage" />
        <dc:title></dc:title>
      </cc:Work>
    </rdf:RDF>
  </metadata>
  <g
     inkscape:label="Layer 1"
     inkscape:groupmode="layer"
     id="layer1"
     transform="translate(-364.78073,-466.76422)">
    <g
       id="g4149"
       transform="matrix(1.2347805,0,0,0.99097791,-85.450567,6.6897269)">
      <path
         sodipodi:nodetypes="cccccccc"
         inkscape:connector-curvature="0"
         id="path4255"
         d="m 365.93448,468.13361 0.0157,7.1088 3.99654,5.85198 3.96696,-5.8149 0.01,-7.21105 -2.50277,-2.19758 -2.86131,-0.0214 z"
         style="fill:#000000;fill-opacity:0;fill-rule:evenodd;stroke:#5a0700;stroke-width:1.11575711;stroke-linecap:butt;stroke-linejoin:miter;stroke-miterlimit:4;stroke-dasharray:none;stroke-opacity:1" />
      <path
         sodipodi:nodetypes="cccc"
         inkscape:connector-curvature="0"
         id="path4257"
         d="m 366.19302,475.30095 2.49835,-1.96505 2.61533,-0.003 2.40369,1.81775"
         style="fill:#000000;fill-opacity:0;fill-rule:evenodd;stroke:#5a0700;stroke-width:1.11575711;stroke-linecap:butt;stroke-linejoin:miter;stroke-miterlimit:4;stroke-dasharray:none;stroke-opacity:1" />
      <ellipse
         ry="1.1298798"
         rx="1.6719832"
         cy="478.50873"
         cx="369.99118"
         id="path4263"
         style="fill:#5a0700;fill-opacity:1;stroke:none;stroke-opacity:1" />
      <rect
         y="479.45154"
         x="369.51334"
         height="0.81119573"
         width="0.85238361"
         id="rect4265"
         style="fill:#5a0700;fill-opacity:1;stroke:none;stroke-opacity:1" />
      <rect
         y="466.27884"
         x="368.50015"
         height="6.9481621"
         width="2.9981766"
         id="rect4267"
         style="fill:#5a0700;fill-opacity:1;stroke:none;stroke-width:1.20000005;stroke-miterlimit:4;stroke-dasharray:none;stroke-opacity:1" />
    </g>
    <path
       style="color:#000000;font-style:normal;font-variant:normal;font-weight:normal;font-stretch:normal;font-size:medium;line-height:normal;font-family:sans-serif;text-indent:0;text-align:start;text-decoration:none;text-decoration-line:none;text-decoration-style:solid;text-decoration-color:#000000;letter-spacing:normal;word-spacing:normal;text-transform:none;direction:ltr;block-progression:tb;writing-mode:lr-tb;baseline-shift:baseline;text-anchor:start;white-space:normal;clip-rule:nonzero;display:inline;overflow:visible;visibility:visible;opacity:0;isolation:auto;mix-blend-mode:normal;color-interpolation:sRGB;color-interpolation-filters:linearRGB;solid-color:#000000;solid-opacity:1;fill:#5a0700;fill-opacity:1;fill-rule:evenodd;stroke:none;stroke-width:1.23423123;stroke-linecap:butt;stroke-linejoin:miter;stroke-miterlimit:4;stroke-dasharray:none;stroke-dashoffset:0;stroke-opacity:1;filter:url(#filter4358);color-rendering:auto;image-rendering:auto;shape-rendering:auto;text-rendering:auto;enable-background:accumulate"
       d="m 369.44672,467.7642 -3.66601,2.56055 0,0.32226 0.0215,7.27149 5.55078,6.52343 5.51563,-6.48828 0.0117,-7.69336 -3.50977,-2.47265 -3.92383,-0.0234 z m 0.11914,1.42188 0,6.03515 -2.5332,1.59766 -0.0176,-5.85352 2.55078,-1.77929 z m 3.70313,0.0391 2.37695,1.67578 -0.01,5.75391 -2.36718,-1.43555 0,-5.10938 0,-0.88476 z m -0.41016,7.18945 2.43945,1.48047 -2.10351,2.47266 a 2.0645321,1.1196858 0 0 0 -1.78711,-0.56055 2.0645321,1.1196858 0 0 0 -1.84766,0.62109 l -2.07422,-2.43554 2.4961,-1.57618 2.87695,-0.002 z"
       id="path4149"
       inkscape:connector-curvature="0" />
  </g>
</svg>
