<?xml version="1.0" encoding="UTF-8" standalone="no"?>
<!-- Created with Inkscape (http://www.inkscape.org/) -->

<svg
   xmlns:dc="http://purl.org/dc/elements/1.1/"
   xmlns:cc="http://creativecommons.org/ns#"
   xmlns:rdf="http://www.w3.org/1999/02/22-rdf-syntax-ns#"
   xmlns:svg="http://www.w3.org/2000/svg"
   xmlns="http://www.w3.org/2000/svg"
   xmlns:sodipodi="http://sodipodi.sourceforge.net/DTD/sodipodi-0.dtd"
   xmlns:inkscape="http://www.inkscape.org/namespaces/inkscape"
   width="231.10786"
   height="231.10788"
   viewBox="0 0 61.147288 61.147295"
   version="1.1"
   id="svg8"
   inkscape:version="0.92.1 r"
   sodipodi:docname="kampagne.svg">
  <defs
     id="defs2" />
  <sodipodi:namedview
     id="base"
     pagecolor="#ffffff"
     bordercolor="#666666"
     borderopacity="1.0"
     inkscape:pageopacity="0.0"
     inkscape:pageshadow="2"
     inkscape:zoom="0.175"
     inkscape:cx="877.67967"
     inkscape:cy="-411.2769"
     inkscape:document-units="mm"
     inkscape:current-layer="layer1"
     showgrid="false"
     units="px"
     fit-margin-top="0"
     fit-margin-left="0"
     fit-margin-right="0"
     fit-margin-bottom="0"
     inkscape:window-width="1920"
     inkscape:window-height="1029"
     inkscape:window-x="0"
     inkscape:window-y="27"
     inkscape:window-maximized="1"
     showguides="false" />
  <metadata
     id="metadata5">
    <rdf:RDF>
      <cc:Work
         rdf:about="">
        <dc:format>image/svg+xml</dc:format>
        <dc:type
           rdf:resource="http://purl.org/dc/dcmitype/StillImage" />
        <dc:title />
      </cc:Work>
    </rdf:RDF>
  </metadata>
  <g
     inkscape:label="Layer 1"
     inkscape:groupmode="layer"
     id="layer1"
     transform="translate(-10.625761,-231.00995)">
    <path
       style="fill:#000000;stroke-width:0.32987013"
       d=""
       id="path4498"
       inkscape:connector-curvature="0" />
    <g
       id="g5141"
       transform="translate(1.5399686,4.6730216)"
       style="fill:#ffffff">
      <path
         inkscape:connector-curvature="0"
         id="rect5073"
         d="m 18.07365,239.73164 c -2.18636,0 -3.946811,1.76045 -3.946811,3.94681 v 26.46422 c 0,2.18636 1.760451,3.94681 3.946811,3.94681 h 28.32192 c 2.186361,0 3.946101,-1.76045 3.946101,-3.94681 v -26.46422 c 0,-2.18636 -1.75974,-3.94681 -3.946101,-3.94681 z m 5.438223,4.09517 a 3.6344733,3.6344733 0 0 1 3.634475,3.63448 3.6344733,3.6344733 0 0 1 -3.634475,3.63447 3.6344733,3.6344733 0 0 1 -3.634473,-3.63447 3.6344733,3.6344733 0 0 1 3.634473,-3.63448 z m 17.445474,0 a 3.6344734,3.6344734 0 0 1 3.634474,3.63448 3.6344734,3.6344734 0 0 1 -3.634474,3.63447 3.6344734,3.6344734 0 0 1 -3.634473,-3.63447 3.6344734,3.6344734 0 0 1 3.634473,-3.63448 z m -17.445474,9.44963 a 3.6344733,3.6344733 0 0 1 3.634475,3.63448 3.6344733,3.6344733 0 0 1 -3.634475,3.63447 3.6344733,3.6344733 0 0 1 -3.634473,-3.63447 3.6344733,3.6344733 0 0 1 3.634473,-3.63448 z m 17.445474,0 a 3.6344734,3.6344734 0 0 1 3.634474,3.63448 3.6344734,3.6344734 0 0 1 -3.634474,3.63447 3.6344734,3.6344734 0 0 1 -3.634473,-3.63447 3.6344734,3.6344734 0 0 1 3.634473,-3.63448 z m -17.445474,9.44892 a 3.6344735,3.6344735 0 0 1 3.634475,3.63448 3.6344735,3.6344735 0 0 1 -3.634475,3.63447 3.6344735,3.6344735 0 0 1 -3.634473,-3.63447 3.6344735,3.6344735 0 0 1 3.634473,-3.63448 z m 17.445474,0 a 3.6344734,3.6344734 0 0 1 3.634474,3.63448 3.6344734,3.6344734 0 0 1 -3.634474,3.63447 3.6344734,3.6344734 0 0 1 -3.634473,-3.63447 3.6344734,3.6344734 0 0 1 3.634473,-3.63448 z"
         style="fill:#ffffff;fill-opacity:1;stroke:none;stroke-width:4.83731508;stroke-miterlimit:4;stroke-dasharray:none;stroke-opacity:1" />
      <path
         inkscape:connector-curvature="0"
         id="rect5097"
         d="m 48.888012,239.73238 c 2.186362,0 3.946809,1.75973 3.946809,3.9461 v 26.46492 c 0,2.18637 -1.760447,3.94611 -3.946809,3.94611 h 5.088262 c 2.186362,0 3.946811,-1.75974 3.946811,-3.94611 v -26.46492 c 0,-2.18637 -1.760449,-3.9461 -3.946811,-3.9461 z"
         style="fill:#ffffff;fill-opacity:1;stroke:none;stroke-width:4.83731508;stroke-miterlimit:4;stroke-dasharray:none;stroke-opacity:1" />
      <path
         inkscape:connector-curvature="0"
         style="fill:#ffffff;fill-opacity:1;stroke:none;stroke-width:4.83731508;stroke-miterlimit:4;stroke-dasharray:none;stroke-opacity:1"
         d="m 56.156964,239.73238 c 2.18636,0 3.946809,1.75974 3.946809,3.9461 v 26.46492 c 0,2.18637 -1.760449,3.94611 -3.946809,3.94611 h 5.088262 c 2.186362,0 3.946809,-1.75974 3.946809,-3.94611 v -26.46492 c 0,-2.18636 -1.760447,-3.9461 -3.946809,-3.9461 z"
         id="path5102" />
    </g>
  </g>
</svg>
